[{"code": 0, "success": true, "resubmitToken": null, "content": {"hasNextPage": true, "pageSize": 15, "start": 0, "currentPageNo": 1, "pageNo": 1, "totalCount": 450, "result": [{"orderBy": 150, "leaderName": "\u6682\u6ca1\u6709\u586b\u5199", "calcScore": false, "companySize": "15-50\u4eba", "countAdjusted": false, "workYear": "3-5\u5e74", "education": "\u5b66\u5386\u4e0d\u9650", "financeStage": "\u521d\u521b\u578b(\u672a\u878d\u8d44)", "city": "\u4e0a\u6d77", "companyLogo": "image1/M00/30/0E/Cgo8PFWFi62AQWBeAABBiADh0W4407.png?cc=0.04744642600417137", "createTimeSort": 1434815718000, "companyId": 78303, "industryField": "\u79fb\u52a8\u4e92\u8054\u7f51 \u00b7 \u6570\u636e\u670d\u52a1", "companyLabelList": ["\u8282\u65e5\u793c\u7269", "\u7ee9\u6548\u5956\u91d1", "\u5e74\u5ea6\u65c5\u6e38", "\u9886\u5bfc\u597d"], "score": 0, "adWord": 0, "formatCreateTime": "23:55\u53d1\u5e03", "showOrder": 0, "salary": "12k-18k", "positionName": "Java", "companyName": "\u7384\u4eab", "jobNature": "\u5168\u804c", "positonTypesMap": null, "totalCount": 250603, "positionFirstType": "\u6280\u672f", "relScore": 0, "createTime": "2015-06-20 23:55:18.0", "positionId": 810880, "randomScore": 0, "companyShortName": "\u4e0a\u6d77\u7384\u4eab\u4fe1\u606f\u79d1\u6280\u6709\u9650\u516c\u53f8", "searchScore": "NaN", "haveDeliver": false, "positionType": "\u540e\u7aef\u5f00\u53d1", "positionAdvantage": "\u89c6\u80fd\u529b\u800c\u5b9a\uff0c\u85aa\u6c34\u9ad8\u4e8e\u5e02\u573a\u4ef7\u683c", "adjustScore": 0}, {"orderBy": 225, "leaderName": "\u5218\u5929\u6587", "calcScore": false, "companySize": "2000\u4eba\u4ee5\u4e0a", "countAdjusted": false, "workYear": "1-3\u5e74", "education": "\u672c\u79d1", "financeStage": "\u4e0a\u5e02\u516c\u53f8", "city": "\u5317\u4eac", "companyLogo": "image1/M00/2D/30/Cgo8PFV369-ACWAZAAATLDGFCX4713.JPG", "createTimeSort": 1434815669000, "companyId": 18265, "industryField": "\u79fb\u52a8\u4e92\u8054\u7f51 \u00b7 \u6570\u636e\u670d\u52a1", "companyLabelList": ["\u6280\u80fd\u57f9\u8bad", "\u8282\u65e5\u793c\u7269", "\u7ee9\u6548\u5956\u91d1", "\u5e74\u5ea6\u65c5\u6e38"], "score": 0, "adWord": 0, "formatCreateTime": "23:54\u53d1\u5e03", "showOrder": 0, "salary": "8k-15k", "positionName": "Android", "companyName": "\u8f6f\u901a\u52a8\u529b", "jobNature": "\u5168\u804c", "positonTypesMap": null, "totalCount": 250603, "positionFirstType": "\u6280\u672f", "relScore": 0, "createTime": "2015-06-20 23:54:29.0", "positionId": 810879, "randomScore": 0, "companyShortName": "\u8f6f\u901a\u52a8\u529b\u4fe1\u606f\u6280\u672f\uff08\u96c6\u56e2\uff09\u6709\u9650\u516c\u53f8", "searchScore": "NaN", "haveDeliver": false, "positionType": "\u79fb\u52a8\u5f00\u53d1", "positionAdvantage": "\u664b\u5347\u7a7a\u95f4\u5927\u3001\u4e94\u9669\u4e00\u91d1\u3001\u5e26\u85aa\u5e74\u5047", "adjustScore": 70}, {"orderBy": 225, "leaderName": "\u5218\u5929\u6587", "calcScore": false, "companySize": "2000\u4eba\u4ee5\u4e0a", "countAdjusted": false, "workYear": "1-3\u5e74", "education": "\u672c\u79d1", "financeStage": "\u4e0a\u5e02\u516c\u53f8", "city": "\u5317\u4eac", "companyLogo": "image1/M00/2D/30/Cgo8PFV369-ACWAZAAATLDGFCX4713.JPG", "createTimeSort": 1434815383000, "companyId": 18265, "industryField": "\u79fb\u52a8\u4e92\u8054\u7f51 \u00b7 \u6570\u636e\u670d\u52a1", "companyLabelList": ["\u6280\u80fd\u57f9\u8bad", "\u8282\u65e5\u793c\u7269", "\u7ee9\u6548\u5956\u91d1", "\u5e74\u5ea6\u65c5\u6e38"], "score": 0, "adWord": 0, "formatCreateTime": "23:49\u53d1\u5e03", "showOrder": 0, "salary": "8k-15k", "positionName": "Java", "companyName": "\u8f6f\u901a\u52a8\u529b", "jobNature": "\u5168\u804c", "positonTypesMap": null, "totalCount": 250603, "positionFirstType": "\u6280\u672f", "relScore": 0, "createTime": "2015-06-20 23:49:43.0", "positionId": 810878, "randomScore": 0, "companyShortName": "\u8f6f\u901a\u52a8\u529b\u4fe1\u606f\u6280\u672f\uff08\u96c6\u56e2\uff09\u6709\u9650\u516c\u53f8", "searchScore": "NaN", "haveDeliver": false, "positionType": "\u540e\u7aef\u5f00\u53d1", "positionAdvantage": "\u4e94\u9669\u4e00\u91d1\u3001\u5e26\u85aa\u5e74\u5047\u3001\u664b\u5347\u7a7a\u95f4\u5927", "adjustScore": 70}, {"orderBy": 200, "leaderName": "\u5de6\u73ae", "calcScore": false, "companySize": "15-50\u4eba", "countAdjusted": false, "workYear": "1-3\u5e74", "education": "\u5b66\u5386\u4e0d\u9650", "financeStage": "\u521d\u521b\u578b(\u672a\u878d\u8d44)", "city": "\u5317\u4eac", "companyLogo": "image1/M00/00/21/Cgo8PFTUWHKAREpcAACDZ3JfCOw824.jpg", "createTimeSort": 1434815225000, "companyId": 17871, "industryField": "\u79fb\u52a8\u4e92\u8054\u7f51 \u00b7 O2O", "companyLabelList": ["\u6280\u80fd\u57f9\u8bad", "\u8282\u65e5\u793c\u7269", "\u80a1\u7968\u671f\u6743", "\u7ee9\u6548\u5956\u91d1"], "score": 0, "adWord": 0, "formatCreateTime": "23:47\u53d1\u5e03", "showOrder": 1433385710655, "salary": "8k-12k", "positionName": "PHP\u9ad8\u7ea7\u5de5\u7a0b\u5e08", "companyName": "\u5947\u5947\u79d1\u6280", "jobNature": "\u5168\u804c", "positonTypesMap": null, "totalCount": 250603, "positionFirstType": "\u6280\u672f", "relScore": 0, "createTime": "2015-06-20 23:47:05.0", "positionId": 87525, "randomScore": 0, "companyShortName": "\u5317\u4eac\u5947\u5947\u79d1\u6280\u6709\u9650\u516c\u53f8", "searchScore": "NaN", "haveDeliver": false, "positionType": "\u540e\u7aef\u5f00\u53d1", "positionAdvantage": "\u664b\u5347\u7a7a\u95f4\u5927\u3001\u4e94\u9669\u3001\u7ee9\u6548\u5956\u52b1\u3001\u671f\u6743\u5206\u7ea2", "adjustScore": 71}, {"orderBy": 200, "leaderName": "\u5de6\u73ae", "calcScore": false, "companySize": "15-50\u4eba", "countAdjusted": false, "workYear": "3-5\u5e74", "education": "\u672c\u79d1", "financeStage": "\u521d\u521b\u578b(\u672a\u878d\u8d44)", "city": "\u5317\u4eac", "companyLogo": "image1/M00/00/21/Cgo8PFTUWHKAREpcAACDZ3JfCOw824.jpg", "createTimeSort": 1434815200000, "companyId": 17871, "industryField": "\u79fb\u52a8\u4e92\u8054\u7f51 \u00b7 O2O", "companyLabelList": ["\u6280\u80fd\u57f9\u8bad", "\u8282\u65e5\u793c\u7269", "\u80a1\u7968\u671f\u6743", "\u7ee9\u6548\u5956\u91d1"], "score": 0, "adWord": 0, "formatCreateTime": "23:46\u53d1\u5e03", "showOrder": 1432858461841, "salary": "15k-30k", "positionName": "Php\u6280\u672f\u603b\u76d1\uff08\u5408\u4f19\u4eba\uff09", "companyName": "\u5947\u5947\u79d1\u6280", "jobNature": "\u5168\u804c", "positonTypesMap": null, "totalCount": 250603, "positionFirstType": "\u6280\u672f", "relScore": 0, "createTime": "2015-06-20 23:46:40.0", "positionId": 463995, "randomScore": 0, "companyShortName": "\u5317\u4eac\u5947\u5947\u79d1\u6280\u6709\u9650\u516c\u53f8", "searchScore": "NaN", "haveDeliver": false, "positionType": "\u540e\u7aef\u5f00\u53d1", "positionAdvantage": "\u664b\u5347\u7a7a\u95f4\u5927\u3001\u5f39\u6027\u4e0a\u73ed\u3001\u7ee9\u6548\u5956\u52b1\u3001\u671f\u6743\u5206\u7ea2", "adjustScore": 71}, {"orderBy": 200, "leaderName": "\u5de6\u73ae", "calcScore": false, "companySize": "15-50\u4eba", "countAdjusted": false, "workYear": "1-3\u5e74", "education": "\u5b66\u5386\u4e0d\u9650", "financeStage": "\u521d\u521b\u578b(\u672a\u878d\u8d44)", "city": "\u5317\u4eac", "companyLogo": "image1/M00/00/21/Cgo8PFTUWHKAREpcAACDZ3JfCOw824.jpg", "createTimeSort": 1434815194000, "companyId": 17871, "industryField": "\u79fb\u52a8\u4e92\u8054\u7f51 \u00b7 O2O", "companyLabelList": ["\u6280\u80fd\u57f9\u8bad", "\u8282\u65e5\u793c\u7269", "\u80a1\u7968\u671f\u6743", "\u7ee9\u6548\u5956\u91d1"], "score": 0, "adWord": 0, "formatCreateTime": "23:46\u53d1\u5e03", "showOrder": 1432858462857, "salary": "8k-16k", "positionName": "HTML5", "companyName": "\u5947\u5947\u79d1\u6280", "jobNature": "\u5168\u804c", "positonTypesMap": null, "totalCount": 250603, "positionFirstType": "\u6280\u672f", "relScore": 0, "createTime": "2015-06-20 23:46:34.0", "positionId": 632376, "randomScore": 0, "companyShortName": "\u5317\u4eac\u5947\u5947\u79d1\u6280\u6709\u9650\u516c\u53f8", "searchScore": "NaN", "haveDeliver": false, "positionType": "\u79fb\u52a8\u5f00\u53d1", "positionAdvantage": "\u53d1\u5c55\u7a7a\u95f4\u5927\u3001\u4e94\u9669\u4e00\u91d1\u3001\u996d\u8865\u3001\u8282\u5047\u51fa\u6e38", "adjustScore": 71}, {"orderBy": 200, "leaderName": "\u5de6\u73ae", "calcScore": false, "companySize": "15-50\u4eba", "countAdjusted": false, "workYear": "1-3\u5e74", "education": "\u5b66\u5386\u4e0d\u9650", "financeStage": "\u521d\u521b\u578b(\u672a\u878d\u8d44)", "city": "\u5317\u4eac", "companyLogo": "image1/M00/00/21/Cgo8PFTUWHKAREpcAACDZ3JfCOw824.jpg", "createTimeSort": 1434815191000, "companyId": 17871, "industryField": "\u79fb\u52a8\u4e92\u8054\u7f51 \u00b7 O2O", "companyLabelList": ["\u6280\u80fd\u57f9\u8bad", "\u8282\u65e5\u793c\u7269", "\u80a1\u7968\u671f\u6743", "\u7ee9\u6548\u5956\u91d1"], "score": 0, "adWord": 0, "formatCreateTime": "23:46\u53d1\u5e03", "showOrder": 0, "salary": "10k-15k", "positionName": "UI\u8bbe\u8ba1\u5e08", "companyName": "\u5947\u5947\u79d1\u6280", "jobNature": "\u5168\u804c", "positonTypesMap": null, "totalCount": 250603, "positionFirstType": "\u8bbe\u8ba1", "relScore": 0, "createTime": "2015-06-20 23:46:31.0", "positionId": 808558, "randomScore": 0, "companyShortName": "\u5317\u4eac\u5947\u5947\u79d1\u6280\u6709\u9650\u516c\u53f8", "searchScore": "NaN", "haveDeliver": false, "positionType": "\u89c6\u89c9\u8bbe\u8ba1", "positionAdvantage": "\u664b\u5347\u7a7a\u95f4\u5927\u3001\u5f39\u6027\u4e0a\u73ed\u3001\u7ee9\u6548\u5956\u52b1\u3001\u5348\u9910\u8865\u52a9", "adjustScore": 71}, {"orderBy": 175, "leaderName": "\u6682\u6ca1\u6709\u586b\u5199", "calcScore": false, "companySize": "150-500\u4eba", "countAdjusted": false, "workYear": "1-3\u5e74", "education": "\u5927\u4e13", "financeStage": "\u6210\u957f\u578b(A\u8f6e)", "city": "\u4e0a\u6d77", "companyLogo": "image1/M00/0D/76/Cgo8PFT32P6AYyEzAABIZwEqG1A846.png", "createTimeSort": 1434815035000, "companyId": 4282, "industryField": "\u7535\u5b50\u5546\u52a1 \u00b7 O2O", "companyLabelList": ["\u6280\u80fd\u57f9\u8bad", "\u8282\u65e5\u793c\u7269", "\u5e26\u85aa\u5e74\u5047", "\u5c97\u4f4d\u664b\u5347"], "score": 0, "adWord": 0, "formatCreateTime": "23:43\u53d1\u5e03", "showOrder": 0, "salary": "10k-20k", "positionName": "\u4e13\u9898\u8bbe\u8ba1\u5e08", "companyName": "\u4e00\u732b\u6c7d\u8f66\u7f51", "jobNature": "\u5168\u804c", "positonTypesMap": null, "totalCount": 250603, "positionFirstType": "\u8bbe\u8ba1", "relScore": 0, "createTime": "2015-06-20 23:43:55.0", "positionId": 810877, "randomScore": 0, "companyShortName": "\u5317\u4eac\u4e00\u732b\u6c7d\u8f66\u79d1\u6280\u6709\u9650\u516c\u53f8", "searchScore": "NaN", "haveDeliver": false, "positionType": "\u89c6\u89c9\u8bbe\u8ba1", "positionAdvantage": "\u8865\u5145\u4fdd\u9669\uff0c\u4e92\u8054\u7f51\u524d\u6cbf\u4ea7\u4e1a\uff0c\u81ea\u7531\u53d1\u6325\u7a7a\u95f4", "adjustScore": 70}, {"orderBy": 335, "leaderName": "\u674e\u6cf3\u5f6c", "calcScore": false, "companySize": "\u5c11\u4e8e15\u4eba", "countAdjusted": false, "workYear": "3-5\u5e74", "education": "\u5b66\u5386\u4e0d\u9650", "financeStage": "\u521d\u521b\u578b(\u5929\u4f7f\u8f6e)", "city": "\u5317\u4eac", "companyLogo": "image1/M00/00/54/CgYXBlTUXR6AQ9R2AABBFRHxmCo842.png", "createTimeSort": 1434814980000, "companyId": 35632, "industryField": "\u79fb\u52a8\u4e92\u8054\u7f51 \u00b7 \u6587\u5316\u5a31\u4e50", "companyLabelList": ["\u80a1\u7968\u671f\u6743", "\u6241\u5e73\u7ba1\u7406", "\u4e94\u9669\u4e00\u91d1", "\u5f39\u6027\u5de5\u4f5c"], "score": 0, "adWord": 0, "formatCreateTime": "23:43\u53d1\u5e03", "showOrder": 1432273809776, "salary": "15k-22k", "positionName": "Android", "companyName": "\u5e55\u540e\u5708", "jobNature": "\u5168\u804c", "positonTypesMap": null, "totalCount": 250603, "positionFirstType": "\u6280\u672f", "relScore": 0, "createTime": "2015-06-20 23:43:00.0", "positionId": 682557, "randomScore": 0, "companyShortName": "\u5317\u4eac\u97f3\u63a7\u6587\u5316\u4f20\u64ad\u6709\u9650\u516c\u53f8", "searchScore": "NaN", "haveDeliver": false, "positionType": "\u79fb\u52a8\u5f00\u53d1", "positionAdvantage": "\u521b\u59cb\u6210\u5458|\u97f3\u4e50\u4ebaAPP|\u671b\u4eacSOHO", "adjustScore": 70}, {"orderBy": 215, "leaderName": "\u674e\u6cf3\u5f6c", "calcScore": false, "companySize": "\u5c11\u4e8e15\u4eba", "countAdjusted": false, "workYear": "5-10\u5e74", "education": "\u5b66\u5386\u4e0d\u9650", "financeStage": "\u521d\u521b\u578b(\u5929\u4f7f\u8f6e)", "city": "\u5317\u4eac", "companyLogo": "image1/M00/00/54/CgYXBlTUXR6AQ9R2AABBFRHxmCo842.png", "createTimeSort": 1434814977000, "companyId": 35632, "industryField": "\u79fb\u52a8\u4e92\u8054\u7f51 \u00b7 \u6587\u5316\u5a31\u4e50", "companyLabelList": ["\u80a1\u7968\u671f\u6743", "\u6241\u5e73\u7ba1\u7406", "\u4e94\u9669\u4e00\u91d1", "\u5f39\u6027\u5de5\u4f5c"], "score": 0, "adWord": 0, "formatCreateTime": "23:42\u53d1\u5e03", "showOrder": 0, "salary": "15k-20k", "positionName": "\u9ad8\u7ea7\u4ea7\u54c1\u8fd0\u8425", "companyName": "\u5e55\u540e\u5708", "jobNature": "\u5168\u804c", "positonTypesMap": null, "totalCount": 250603, "positionFirstType": "\u8fd0\u8425", "relScore": 0, "createTime": "2015-06-20 23:42:57.0", "positionId": 790115, "randomScore": 0, "companyShortName": "\u5317\u4eac\u97f3\u63a7\u6587\u5316\u4f20\u64ad\u6709\u9650\u516c\u53f8", "searchScore": "NaN", "haveDeliver": false, "positionType": "\u8fd0\u8425", "positionAdvantage": "\u97f3\u4e50APP|10\u70b9\u4e0a\u73ed|\u53cc\u4f11|\u4e94\u9669\u4e00\u91d1|\u671b\u4eacSOHO", "adjustScore": 70}, {"orderBy": 150, "leaderName": "sherwood \u3001\u59da\u5c0f\u9f99", "calcScore": false, "companySize": "\u5c11\u4e8e15\u4eba", "countAdjusted": false, "workYear": "1-3\u5e74", "education": "\u5b66\u5386\u4e0d\u9650", "financeStage": "\u521d\u521b\u578b(\u672a\u878d\u8d44)", "city": "\u897f\u5b89", "companyLogo": "image1/M00/0C/77/Cgo8PFT1bseAFPPpAABiNBmllvI523.jpg", "createTimeSort": 1434814955000, "companyId": 53911, "industryField": "O2O", "companyLabelList": ["\u8282\u65e5\u793c\u7269", "\u6280\u80fd\u57f9\u8bad", "\u7ee9\u6548\u5956\u91d1", "\u5e74\u5ea6\u65c5\u6e38"], "score": 0, "adWord": 0, "formatCreateTime": "23:42\u53d1\u5e03", "showOrder": 0, "salary": "10k-12k", "positionName": "Ruby", "companyName": "\u62fe\u5fc6\u79d1\u6280", "jobNature": "\u5168\u804c", "positonTypesMap": null, "totalCount": 250603, "positionFirstType": "\u6280\u672f", "relScore": 0, "createTime": "2015-06-20 23:42:35.0", "positionId": 810876, "randomScore": 0, "companyShortName": "\u897f\u5b89\u62fe\u5fc6\u4fe1\u606f\u79d1\u6280\u6709\u9650\u516c\u53f8", "searchScore": "NaN", "haveDeliver": false, "positionType": "\u540e\u7aef\u5f00\u53d1", "positionAdvantage": "\u6b22\u8fce\u5bf9Ruby\u70ed\u7231\u7684\u4f60\u52a0\u5165\uff0c\u5171\u4eab\u4e8b\u4e1a\u6210\u957f\u5feb\u4e50", "adjustScore": 0}, {"orderBy": 200, "leaderName": "\u6682\u6ca1\u6709\u586b\u5199", "calcScore": false, "companySize": "500-2000\u4eba", "countAdjusted": false, "workYear": "5-10\u5e74", "education": "\u7855\u58eb", "financeStage": "\u521d\u521b\u578b(\u672a\u878d\u8d44)", "city": "\u5317\u4eac", "companyLogo": "image1/M00/00/7C/Cgo8PFTUXcCAbiyLAADH3yrWD8g862.jpg", "createTimeSort": 1434814907000, "companyId": 47881, "industryField": "\u786c\u4ef6", "companyLabelList": ["\u6280\u80fd\u57f9\u8bad", "\u8282\u65e5\u793c\u7269", "\u5e26\u85aa\u5e74\u5047", "\u7ee9\u6548\u5956\u91d1"], "score": 0, "adWord": 0, "formatCreateTime": "23:41\u53d1\u5e03", "showOrder": 1433293765118, "salary": "20k-35k", "positionName": "\u8d22\u52a1\u603b\u76d1\uff08\u62df\u4e0a\u5e02\u79d1\u6280\u516c\u53f8\uff09", "companyName": "\u5317\u4eac\u6052\u901a\u7eff\u5efa\u8282\u80fd\u79d1\u6280\u6709\u9650\u516c\u53f8\u662f\u4e2d\u4fe1\u56fd\u5b89\u6295\u8d44\u6709\u9650\u516c\u53f8\u4e0b\u5c5e\u7684\u4e92\u8054\u7f51\u79d1\u6280\u578b\u4f01\u4e1a", "jobNature": "\u5168\u804c", "positonTypesMap": null, "totalCount": 250603, "positionFirstType": "\u804c\u80fd", "relScore": 0, "createTime": "2015-06-20 23:41:47.0", "positionId": 674981, "randomScore": 0, "companyShortName": "\u5317\u4eac\u6052\u901a\u7eff\u5efa\u8282\u80fd\u79d1\u6280\u6709\u9650\u516c\u53f8", "searchScore": "NaN", "haveDeliver": false, "positionType": "\u9ad8\u7aef\u804c\u80fd\u804c\u4f4d", "positionAdvantage": "\u4e0a\u5e02\u6241\u5e73\u5316\u3001\u9ad8\u6548\u7387\u4e92\u8054\u7f51\u3001\u79d1\u6280\u516c\u53f8", "adjustScore": 0}, {"orderBy": 200, "leaderName": "\u6682\u6ca1\u6709\u586b\u5199", "calcScore": false, "companySize": "500-2000\u4eba", "countAdjusted": false, "workYear": "10\u5e74\u4ee5\u4e0a", "education": "\u7855\u58eb", "financeStage": "\u521d\u521b\u578b(\u672a\u878d\u8d44)", "city": "\u5317\u4eac", "companyLogo": "image1/M00/00/7C/Cgo8PFTUXcCAbiyLAADH3yrWD8g862.jpg", "createTimeSort": 1434814906000, "companyId": 47881, "industryField": "\u786c\u4ef6", "companyLabelList": ["\u6280\u80fd\u57f9\u8bad", "\u8282\u65e5\u793c\u7269", "\u5e26\u85aa\u5e74\u5047", "\u7ee9\u6548\u5956\u91d1"], "score": 0, "adWord": 0, "formatCreateTime": "23:41\u53d1\u5e03", "showOrder": 0, "salary": "25k-45k", "positionName": "\u8463\u4e8b\u4f1a\u79d8\u4e66", "companyName": "\u5317\u4eac\u6052\u901a\u7eff\u5efa\u8282\u80fd\u79d1\u6280\u6709\u9650\u516c\u53f8\u662f\u4e2d\u4fe1\u56fd\u5b89\u6295\u8d44\u6709\u9650\u516c\u53f8\u4e0b\u5c5e\u7684\u4e92\u8054\u7f51\u79d1\u6280\u578b\u4f01\u4e1a", "jobNature": "\u5168\u804c", "positonTypesMap": null, "totalCount": 250603, "positionFirstType": "\u804c\u80fd", "relScore": 0, "createTime": "2015-06-20 23:41:46.0", "positionId": 748546, "randomScore": 0, "companyShortName": "\u5317\u4eac\u6052\u901a\u7eff\u5efa\u8282\u80fd\u79d1\u6280\u6709\u9650\u516c\u53f8", "searchScore": "NaN", "haveDeliver": false, "positionType": "\u9ad8\u7aef\u804c\u80fd\u804c\u4f4d", "positionAdvantage": "\u4e0a\u5e02\u6241\u5e73\u5316\u3001\u9ad8\u6548\u7387\u4e92\u8054\u7f51\u3001\u79d1\u6280\u516c\u53f8", "adjustScore": 0}, {"orderBy": 175, "leaderName": "\u6682\u6ca1\u6709\u586b\u5199", "calcScore": false, "companySize": "150-500\u4eba", "countAdjusted": false, "workYear": "\u4e0d\u9650", "education": "\u5927\u4e13", "financeStage": "\u6210\u957f\u578b(A\u8f6e)", "city": "\u4e0a\u6d77", "companyLogo": "image1/M00/0D/76/Cgo8PFT32P6AYyEzAABIZwEqG1A846.png", "createTimeSort": 1434814906000, "companyId": 4282, "industryField": "\u7535\u5b50\u5546\u52a1 \u00b7 O2O", "companyLabelList": ["\u6280\u80fd\u57f9\u8bad", "\u8282\u65e5\u793c\u7269", "\u5e26\u85aa\u5e74\u5047", "\u5c97\u4f4d\u664b\u5347"], "score": 0, "adWord": 0, "formatCreateTime": "23:41\u53d1\u5e03", "showOrder": 0, "salary": "5k-7k", "positionName": "\u9500\u552e\u652f\u6301", "companyName": "\u4e00\u732b\u6c7d\u8f66\u7f51", "jobNature": "\u5168\u804c", "positonTypesMap": null, "totalCount": 250603, "positionFirstType": "\u5e02\u573a\u4e0e\u9500\u552e", "relScore": 0, "createTime": "2015-06-20 23:41:46.0", "positionId": 810875, "randomScore": 0, "companyShortName": "\u5317\u4eac\u4e00\u732b\u6c7d\u8f66\u79d1\u6280\u6709\u9650\u516c\u53f8", "searchScore": "NaN", "haveDeliver": false, "positionType": "\u9500\u552e", "positionAdvantage": "\u8865\u5145\u4fdd\u9669\uff0c\u4e92\u8054\u7f51\u524d\u6cbf\u4ea7\u4e1a\uff0c\u81ea\u7531\u53d1\u5c55\u7a7a\u95f4", "adjustScore": 70}, {"orderBy": 200, "leaderName": "\u6682\u6ca1\u6709\u586b\u5199", "calcScore": false, "companySize": "500-2000\u4eba", "countAdjusted": false, "workYear": "10\u5e74\u4ee5\u4e0a", "education": "\u672c\u79d1", "financeStage": "\u521d\u521b\u578b(\u672a\u878d\u8d44)", "city": "\u5317\u4eac", "companyLogo": "image1/M00/00/7C/Cgo8PFTUXcCAbiyLAADH3yrWD8g862.jpg", "createTimeSort": 1434814905000, "companyId": 47881, "industryField": "\u786c\u4ef6", "companyLabelList": ["\u6280\u80fd\u57f9\u8bad", "\u8282\u65e5\u793c\u7269", "\u5e26\u85aa\u5e74\u5047", "\u7ee9\u6548\u5956\u91d1"], "score": 0, "adWord": 0, "formatCreateTime": "23:41\u53d1\u5e03", "showOrder": 1433410806486, "salary": "25k-40k", "positionName": "\u6295\u878d\u8d44\u603b\u76d1\uff08\u62df\u4e0a\u5e02\u578b\u79d1\u6280\u3001\u4e92\u8054\u7f51\u516c\u53f8\uff09", "companyName": "\u5317\u4eac\u6052\u901a\u7eff\u5efa\u8282\u80fd\u79d1\u6280\u6709\u9650\u516c\u53f8\u662f\u4e2d\u4fe1\u56fd\u5b89\u6295\u8d44\u6709\u9650\u516c\u53f8\u4e0b\u5c5e\u7684\u4e92\u8054\u7f51\u79d1\u6280\u578b\u4f01\u4e1a", "jobNature": "\u5168\u804c", "positonTypesMap": null, "totalCount": 250603, "positionFirstType": "\u91d1\u878d", "relScore": 0, "createTime": "2015-06-20 23:41:45.0", "positionId": 675086, "randomScore": 0, "companyShortName": "\u5317\u4eac\u6052\u901a\u7eff\u5efa\u8282\u80fd\u79d1\u6280\u6709\u9650\u516c\u53f8", "searchScore": "NaN", "haveDeliver": false, "positionType": "\u9ad8\u7aef\u91d1\u878d\u804c\u4f4d", "positionAdvantage": "\u4e0a\u5e02\u6241\u5e73\u5316\u3001\u9ad8\u6548\u7387\u4e92\u8054\u7f51\u3001\u79d1\u6280\u516c\u53f8", "adjustScore": 0}], "totalPageCount": 30, "hasPreviousPage": false}, "requestId": null, "msg": null}]